<svg xmlns="http://www.w3.org/2000/svg" width="12" height="11" viewBox="0 0 12 11">
    <path fill="#ff8820" fill-rule="nonzero" d="M5.758 0c.201 0 .403.114.48.344L7.396 3.77l3.618.043a.506.506 0 0 1 .297.913l-2.903 2.16 1.078 3.453a.507.507 0 0 1-.777.564L5.758 8.813l-2.951 2.091a.507.507 0 0 1-.778-.564l1.078-3.453-2.902-2.16a.506.506 0 0 1 .297-.913l3.617-.043L5.277.344A.498.498 0 0 1 5.757 0z"/>
</svg>
